Taudio_processing_offsets
v6
r1
cCheck dependencies
cPhaseScriptExecution Rule\ \"generate_asm_header\" /Users/chenzs/project/webrtc-ios/trunk/webrtc/modules/../../xcodebuild/modules.build/Debug-iphoneos/audio_processing_offsets.build/Script-633FEEB0A62FBA590E2A510D.sh

N/Users/chenzs/project/webrtc-ios/trunk/xcodebuild/modules.build/Debug-iphoneos/audio_processing_offsets.build/Script-633FEEB0A62FBA590E2A510D.sh
c0000000052E46AEB00000000000000DE
t1390701291
s222

CCheck dependencies
r0
lSLF06#21%IDEActivityLogSection1@2#32"com.apple.dt.IDE.BuildLogSection18"Check dependencies18"Check dependencies0ef4706ba294b841^32c8716ba294b841^---0#1#1#--18"Check dependencies36"AE836AB7-205E-4C59-BCE0-FA91AB4FBC86-

CPhaseScriptExecution Rule\ \"generate_asm_header\" /Users/chenzs/project/webrtc-ios/trunk/webrtc/modules/../../xcodebuild/modules.build/Debug-iphoneos/audio_processing_offsets.build/Script-633FEEB0A62FBA590E2A510D.sh
s412394091.809095
e412394091.872061
r1
xPhaseScriptExecution
xRule "generate_asm_header"
x/Users/chenzs/project/webrtc-ios/trunk/webrtc/modules/../../xcodebuild/modules.build/Debug-iphoneos/audio_processing_offsets.build/Script-633FEEB0A62FBA590E2A510D.sh
omake: Nothing to be done for `all'.
lSLF06#21%IDEActivityLogSection1@2#32"com.apple.dt.IDE.BuildLogSection52"Run custom shell script 'Rule "generate_asm_header"'162"PhaseScriptExecution Rule\ \"generate_asm_header\" ../../xcodebuild/modules.build/Debug-iphoneos/audio_processing_offsets.build/Script-633FEEB0A62FBA590E2A510D.sh7310d06ba294b841^9a42df6ba294b841^-36"make: Nothing to be done for `all'.1(21%IDEActivityLogMessage2@36"make: Nothing to be done for `all'.-412394091#0#36#-0#-----0#0#1#--405"PhaseScriptExecution Rule\ \"generate_asm_header\" ../../xcodebuild/modules.build/Debug-iphoneos/audio_processing_offsets.build/Script-633FEEB0A62FBA590E2A510D.sh    cd /Users/chenzs/project/webrtc-ios/trunk/webrtc/modules    /bin/sh -c /Users/chenzs/project/webrtc-ios/trunk/webrtc/modules/../../xcodebuild/modules.build/Debug-iphoneos/audio_processing_offsets.build/Script-633FEEB0A62FBA590E2A510D.sh36"AFA5F4E3-2293-4EE9-95C5-99D5CFC69377-
b320223C6-C491-4F4D-8D2F-CFAE2DED7E94

